{
	"parent": "item/generated",
	"textures": {
		"layer0": "item/attack_claw"
	},
	"display": {
        "thirdperson_righthand": {
            "rotation": [ -80, 270, -40 ],
            "translation": [ 2.25, -1, -2 ],
            "scale": [ 0.9, 0.9, 0.9 ]
        },
        "thirdperson_lefthand": {
            "rotation": [ -80, 270, 40 ],
            "translation": [ 2.5, -2, -2 ],
            "scale": [ 0.9, 0.9, 0.9 ]
        },
        "firstperson_lefthand": {
            "rotation": [ 0, 90, 0 ]
        }
    }
}